{
    "Categories": "Qt;KDE;",
    "KPlugin": {
        "BugReportUrl": "https://bugs.kde.org/enter_bug.cgi?product=systemsettings&component=kcm_updates",
        "Description": "Configure software update behavior",
        "Description[ar]": "اضبط سلوك تحديث التطبيقات",
        "Description[az]": "Proqram təminatı yenilənməsi davranışını tənzimləyin",
        "Description[be]": "Наладжванне паводзін абнаўлення праграмнага забеспячэння",
        "Description[bg]": "Конфигуриране на актуализация на софтуера",
        "Description[ca@valencia]": "Configura el comportament de l'actualització de programari",
        "Description[ca]": "Configura el comportament de l'actualització de programari",
        "Description[cs]": "Nastavit chování aktualizací software",
        "Description[de]": "Verhalten der Softwareaktualisierungen einrichten",
        "Description[en_GB]": "Configure software update behaviour",
        "Description[es]": "Configurar el comportamiento de las actualizaciones de software",
        "Description[et]": "Tarkvarauuenduste käitumise seadistamine",
        "Description[eu]": "Konfiguratu software eguneratzearen jokabidea",
        "Description[fi]": "Määritä ohjelmapäivitysten toiminta",
        "Description[fr]": "Configurer le comportement pour les mises à jour des logiciels ",
        "Description[hu]": "A szoftverfrissítés működésének beállítása",
        "Description[ia]": "Configura ambiente de actualisation de software",
        "Description[id]": "Konfigurasikan perilaku pembaruan perangkat lunak",
        "Description[ie]": "Configurar parametres del actualisation de programmas",
        "Description[is]": "Stilla hegðun hugbúnaðaruppfærslna",
        "Description[it]": "Configura il comportamento degli aggiornamenti software",
        "Description[ja]": "ソフトウェア更新の挙動を設定します",
        "Description[ka]": "პროგრამების განახლებების ქცევის მორგება",
        "Description[ko]": "소프트웨어 업데이트 행동 설정",
        "Description[nb]": "Sett opp håndtering av programvareoppdateringer",
        "Description[nl]": "Gedrag van software bijwerken configureren",
        "Description[nn]": "Set opp handtering av programoppdateringar",
        "Description[pa]": "ਸਾਫਟਵੇਅਰ ਅੱਪਡੇਟ ਰਵੱਈਏ ਦੀ ਸੰਰਚਨਾ",
        "Description[pl]": "Ustawienia zachowania uaktualnień oprogramowania",
        "Description[pt]": "Configurar o comportamento da actualização das aplicações",
        "Description[pt_BR]": "Configurar o comportamento da atualização de aplicativos",
        "Description[ro]": "Configurează comportamentul actualizării de programe",
        "Description[ru]": "Настройка службы обновления программ",
        "Description[sk]": "Nakonfigurovať správanie softvérových aktualizácii",
        "Description[sl]": "Nastavite obnašanje posodobitve programov",
        "Description[sv]": "Anpassa beteende för uppdateringar av programvara",
        "Description[ta]": "மென்பொருள் புதுப்பிப்புகளின் நடத்தையை அமையுங்கள்",
        "Description[tr]": "Yazılım güncelleme davranışını yapılandır",
        "Description[uk]": "Налаштовування поведінки при оновленні програм",
        "Description[x-test]": "xxConfigure software update behaviorxx",
        "Description[zh_CN]": "配置软件更新行为",
        "Description[zh_TW]": "設定軟體更新行為",
        "FormFactors": [
            "tablet",
            "handset",
            "desktop"
        ],
        "Icon": "system-software-update",
        "Name": "Software Update",
        "Name[ar]": "تحديث البرمجيّات",
        "Name[az]": "Proqram Təminatı Yenilənməsi",
        "Name[be]": "Абнаўленне праграмнага забеспячэння",
        "Name[bg]": "Актуализация на софтуера",
        "Name[ca@valencia]": "Actualització de programari",
        "Name[ca]": "Actualització de programari",
        "Name[cs]": "Aktualizace softwaru",
        "Name[de]": "Softwareaktualisierung",
        "Name[en_GB]": "Software Update",
        "Name[es]": "Actualización de software",
        "Name[et]": "Tarkvarauuendus",
        "Name[eu]": "Software eguneratzea",
        "Name[fi]": "Ohjelmapäivitys",
        "Name[fr]": "Mise à jour des logiciels ",
        "Name[hi]": "सॉफ्टवेयर अद्यतन",
        "Name[hsb]": "Aktualizowanje",
        "Name[hu]": "Szoftverfrissítés",
        "Name[ia]": "Actualisationes de Software",
        "Name[id]": "Pembaruan Perangkat Lunak",
        "Name[ie]": "Actualisation de programmas",
        "Name[is]": "Hugbúnaðaruppfærsla",
        "Name[it]": "Aggiornamento software",
        "Name[ja]": "ソフトウェア更新",
        "Name[ka]": "პროგრამების განახლება",
        "Name[ko]": "소프트웨어 업데이트",
        "Name[lt]": "Programinės įrangos atnaujinimas",
        "Name[my]": "ဆော့ဖ်ဝဲလ်အပ်ဒိတ်",
        "Name[nb]": "Programvareoppdatering",
        "Name[nl]": "Bijwerken van software",
        "Name[nn]": "Program­oppdatering",
        "Name[pa]": "ਸਾਫਟਵੇਅਰ ਅੱਪਡੇਟ",
        "Name[pl]": "Uaktualnienia oprogramowania",
        "Name[pt]": "Actualização das Aplicações",
        "Name[pt_BR]": "Atualização de aplicativos",
        "Name[ro]": "Actualizare de programe",
        "Name[ru]": "Обновление программ",
        "Name[sk]": "Aktualizácia softvéru",
        "Name[sl]": "Posodobi programe",
        "Name[sv]": "Uppdatering av programvara",
        "Name[ta]": "மென்பொருள் புதுப்பிப்புகள்",
        "Name[tg]": "Навсозии нармафзор",
        "Name[tr]": "Yazılım Güncelleme",
        "Name[uk]": "Оновлення програм",
        "Name[x-test]": "xxSoftware Updatexx",
        "Name[zh_CN]": "软件更新",
        "Name[zh_TW]": "軟體更新",
        "ServiceTypes": [
            "KCModule"
        ]
    },
    "X-KDE-Keywords": "updates",
    "X-KDE-Keywords[ca]": "actualitzacions",
    "X-KDE-Keywords[es]": "actualizaciones",
    "X-KDE-Keywords[fr]": "mises à jour",
    "X-KDE-Keywords[it]": "aggiornamenti",
    "X-KDE-Keywords[nl]": "elementen voor bijwerken",
    "X-KDE-Keywords[sv]": "uppdateringar",
    "X-KDE-Keywords[uk]": "оновлення",
    "X-KDE-Keywords[x-test]": "xxupdatesxx",
    "X-KDE-ParentApp": "kcontrol",
    "X-KDE-System-Settings-Parent-Category": "system-administration"
}
